{
  "total_count": 2636,
  "offset": 0,
  "q": "key",
  "_links": {
    "self": {
      "href": "https://api.artsy.net/api/search?offset=0&q=key&size=10"
    },
    "next": {
      "href": "https://api.artsy.net/api/search?offset=10&q=key&size=10"
    }
  },
  "_embedded": {
    "results": [
      {
        "type": "artist",
        "title": "Jon Key",
        "description": null,
        "og_type": "artist",
        "_links": {
          "self": {
            "href": "https://api.artsy.net/api/artists/5c0737499903c246a5745bb2"
          },
          "permalink": {
            "href": "https://www.artsy.net/artist/jon-key"
          },
          "thumbnail": {
            "href": "https://d32dm0rphc51dk.cloudfront.net/cLifWpN-wVGt7aNEpKCowg/square.jpg"
          }
        }
      },
      {
        "type": "artist",
        "title": "Jarrett Key",
        "description": null,
        "og_type": "artist",
        "_links": {
          "self": {
            "href": "https://api.artsy.net/api/artists/5f168c2c66c93000116bb441"
          },
          "permalink": {
            "href": "https://www.artsy.net/artist/jarrett-key"
          },
          "thumbnail": {
            "href": "https://d32dm0rphc51dk.cloudfront.net/BGMfcAwRtZM-C0ThMr9h1Q/square.jpg"
          }
        }
      },
      {
        "type": "show",
        "title": "Raoul De Keyser",
        "description": null,
        "og_type": "show",
        "_links": {
          "self": {
            "href": "https://api.artsy.net/api/shows/6001e6e02ecbe765d865879c"
          },
          "permalink": {
            "href": "https://www.artsy.net/show/david-zwirner-raoul-de-keyser"
          },
          "thumbnail": {
            "href": "https://d32dm0rphc51dk.cloudfront.net/lY87fV2au74IBZxIhEmhng/square.jpg"
          }
        }
      },
      {
        "type": "artist",
        "title": "Willem Key",
        "description": null,
        "og_type": "artist",
        "_links": {
          "self": {
            "href": "https://api.artsy.net/api/artists/5ec24d7ffee1e0001184c14c"
          },
          "permalink": {
            "href": "https://www.artsy.net/artist/willem-key"
          },
          "thumbnail": {
            "href": "https://d32dm0rphc51dk.cloudfront.net/VknfEolJlmYAwRYsEupBow/square.jpg"
          }
        }
      },
      {
        "type": "artist",
        "title": "Josh Keyes",
        "description": null,
        "og_type": "artist",
        "_links": {
          "self": {
            "href": "https://api.artsy.net/api/artists/4fe250e7d306d80001000d1a"
          },
          "permalink": {
            "href": "https://www.artsy.net/artist/josh-keyes"
          },
          "thumbnail": {
            "href": "https://d32dm0rphc51dk.cloudfront.net/ZSuUi-Kau8YZmyY6bJa_7Q/square.jpg"
          }
        }
      },
      {
        "type": "artist",
        "title": "April Key",
        "description": null,
        "og_type": "artist",
        "_links": {
          "self": {
            "href": "https://api.artsy.net/api/artists/60f2037372689600130bddb5"
          },
          "permalink": {
            "href": "https://www.artsy.net/artist/april-key"
          },
          "thumbnail": {
            "href": "https://d32dm0rphc51dk.cloudfront.net/JKvTEywtD0GK_dMFY-hgFQ/square.jpg"
          }
        }
      },
      {
        "type": "artist",
        "title": "Keyezua",
        "description": null,
        "og_type": "artist",
        "_links": {
          "self": {
            "href": "https://api.artsy.net/api/artists/59b6981a9c18db4d6f3bbace"
          },
          "permalink": {
            "href": "https://www.artsy.net/artist/keyezua"
          },
          "thumbnail": {
            "href": "https://d32dm0rphc51dk.cloudfront.net/-iHbrIxS4e1Ee9V7tf5yTg/square.jpg"
          }
        }
      },
      {
        "type": "artist",
        "title": "Key Hiraga",
        "description": null,
        "og_type": "artist",
        "_links": {
          "self": {
            "href": "https://api.artsy.net/api/artists/56d70cbf7622dd1deb0000fd"
          },
          "permalink": {
            "href": "https://www.artsy.net/artist/key-hiraga"
          },
          "thumbnail": {
            "href": "https://d32dm0rphc51dk.cloudfront.net/6U3PdPog-5YvBgR_cfFO1A/square.jpg"
          }
        }
      },
      {
        "type": "artist",
        "title": "Geoffrey Key",
        "description": null,
        "og_type": "artist",
        "_links": {
          "self": {
            "href": "https://api.artsy.net/api/artists/52617d51275b244059000010"
          },
          "permalink": {
            "href": "https://www.artsy.net/artist/geoffrey-key"
          },
          "thumbnail": {
            "href": "https://d32dm0rphc51dk.cloudfront.net/8Z68cgR9W4qGXBST0Ww90Q/square.jpg"
          }
        }
      },
      {
        "type": "artist",
        "title": "Caroline Key",
        "description": null,
        "og_type": "artist",
        "_links": {
          "self": {
            "href": "https://api.artsy.net/api/artists/5dc462bace8be5000e708f59"
          },
          "permalink": {
            "href": "https://www.artsy.net/artist/caroline-key"
          },
          "thumbnail": {
            "href": "https://d32dm0rphc51dk.cloudfront.net/6HR5JyXu41yO_G6Af6R-7g/square.jpg"
          }
        }
      }
    ]
  }
}